Tips for effective visualizations
…
]

.panel[.panel-name[3 Code to prep data]

.pull-left[

```r
umfrage <- read_rds(
  here::here("data", "umfrage.rds")
)
umfrage
```

```
## # A tibble: 56 x 3
##    party   pollster         popularity
##    <chr>   <chr>                 <dbl>
##  1 CDU/CSU Allensbach             28.5
##  2 CDU/CSU Kantar(Emnid)          25  
##  3 CDU/CSU Forsa                  26  
##  4 CDU/CSU Forsch’gr.Wahlen       28  
##  5 CDU/CSU GMS                    37  
##  6 CDU/CSU Infratestdimap         29  
##  7 CDU/CSU INSA                   28  
##  8 CDU/CSU Yougov                 33  
##  9 SPD     Allensbach             18  
## 10 SPD     Kantar(Emnid)          17  
## # ... with 46 more rows
```
…
