The Tidyverse
…
.panelset[

.panel[.panel-name[Select one column]

.pull-left70[

Select the column `review_score`.

```r
select(bookings, review_score)
```

```
## # A tibble: 10,000 x 1
##    review_score
##           <dbl>
##  1        NA   
##  2        NA   
##  3         6.26
##  4         5.95
##  5         6.43
##  6        NA   
##  7         7.60
##  8        NA   
##  9         6.97
## 10        NA   
## # ... with 9,990 more rows
```
…
]

]
.panel[.panel-name[Select multiple columns]

.pull-left70[

Select multiple columns by specifying column names as additional arguments.

```r
select(bookings, review_score, status)
```

```
## # A tibble: 10,000 x 2
##    review_score status   
##           <dbl> <chr>    
##  1        NA    cancelled
##  2        NA    cancelled
##  3         6.26 stayed   
##  4         5.95 stayed   
##  5         6.43 stayed   
##  6        NA    cancelled
##  7         7.60 stayed   
##  8        NA    cancelled
##  9         6.97 stayed   
## 10        NA    cancelled
## # ... with 9,990 more rows
```
…
]

.panel[.panel-name[Exclude columns]

.pull-left70[

Negative selection: select all but specific columns using `-`.

```r
select(bookings, -booker_id)
```

```
## # A tibble: 10,000 x 7
##    property_id room_nights price_per_night checkin_day for_business status    review_score
##          <dbl>       <dbl>           <dbl> <chr>       <lgl>        <chr>            <dbl>
##  1        2668           4            91.5 mon         FALSE        cancelled        NA   
##  2        4656           5           107.  tue         FALSE        cancelled        NA   
##  3        4563           6            87.0 wed         FALSE        stayed            6.26
##  4        4088           7            92.4 fri         FALSE        stayed            5.95
##  5        2188           4           105.  tue         FALSE        stayed            6.43
##  6        4171           2           110.  fri         FALSE        cancelled        NA   
##  7        2907           4           116.  fri         FALSE        stayed            7.60
##  8        5141           4           111.  wed         FALSE        cancelled        NA   
##  9        1696           1           106.  wed         FALSE        stayed            6.97
## 10        1901           7            82.3 sat         FALSE        cancelled        NA   
## # ... with 9,990 more rows
```
…
<!-- .content-box-purple[ -->
<!-- ] -->

.panelset[

.panel[.panel-name[Combined helpers]

> _"Select all columns whose names either contain 'id' or end with 'night'."_

```r
select(bookings, contains("id"), ends_with("night"))
```

```
## # A tibble: 10,000 x 3
##    booker_id                                property_id price_per_night
##    <chr>                                          <dbl>           <dbl>
##  1 215934017ba98c09f30dedd29237b43dad5c7b5f        2668            91.5
##  2 7f590fd6d318248a48665f7f7db529aca40c84f5        4656           107. 
##  3 10f0f138e8bb1015d3928f2b7d828cbb50cd0804        4563            87.0
##  4 7b55021a4160dde65e31963fa55a096535bcad17        4088            92.4
##  5 6694a79d158c7818cd63831b71bac91286db5aff        2188           105. 
##  6 d0358740d5f15e85523f94ab8219f25d8c017347        4171           110. 
##  7 944e568a0b511b9140bcc7c7c80c68c3edd3a86f        2907           116. 
##  8 95476c2ef6bb9e3c227b46f1283310737fa13b7a        5141           111. 
##  9 df235631a4c281c01e007b6a4c364e07f5843994        1696           106. 
## 10 ff610140227d40d27daa01f0dcd5d64ea82e833d        1901            82.3
## # ... with 9,990 more rows
```

]

.panel[.panel-name[`any_of()`]

> _"Select any of the two columns `room_nights`, `this_column_is_not_there`."_

```r
select(bookings, any_of(c("room_nights", "this_column_is_not_there")))
```

```
## # A tibble: 10,000 x 1
##    room_nights
##          <dbl>
##  1           4
##  2           5
##  3           6
##  4           7
##  5           4
##  6           2
##  7           4
##  8           4
##  9           1
## 10           7
## # ... with 9,990 more rows
```
…
---

## Filter rows with `filter()`

.pull-left70[

Filter bookings which stayed, i.e., didn't cancel.

```r
filter(bookings, status == "stayed")
```

```
## # A tibble: 7,775 x 8
##    booker_id       property_id room_nights price_per_night checkin_day for_business status
##    <chr>                 <dbl>       <dbl>           <dbl> <chr>       <lgl>        <chr> 
##  1 10f0f138e8bb10~        4563           6            87.0 wed         FALSE        stayed
##  2 7b55021a4160dd~        4088           7            92.4 fri         FALSE        stayed
##  3 6694a79d158c78~        2188           4           105.  tue         FALSE        stayed
##  4 944e568a0b511b~        2907           4           116.  fri         FALSE        stayed
##  5 df235631a4c281~        1696           1           106.  wed         FALSE        stayed
##  6 aeff2e2d3d23b1~        2188           1           109.  wed         FALSE        stayed
##  7 5a1442f4c7237e~        2307           9            84.2 sat         FALSE        stayed
##  8 39804a2e3fb2e4~        2907           6           112.  sun         FALSE        stayed
##  9 e150e559405ef2~        2870           4           127.  sat         FALSE        stayed
## 10 4e9c7c21dfcf27~        1674           5           102.  sun         FALSE        stayed
## # ... with 7,765 more rows, and 1 more variable: review_score <dbl>
```
…
.pull-left70[

Combine multiple conditions with `&`.

```r
filter(
  bookings, 
  status == "stayed" & 
    !is.na(review_score) & 
    between(price_per_night, 90, 120)
)
```

```
## # A tibble: 3,032 x 8
##    booker_id       property_id room_nights price_per_night checkin_day for_business status
##    <chr>                 <dbl>       <dbl>           <dbl> <chr>       <lgl>        <chr> 
##  1 7b55021a4160dd~        4088           7            92.4 fri         FALSE        stayed
##  2 6694a79d158c78~        2188           4           105.  tue         FALSE        stayed
##  3 944e568a0b511b~        2907           4           116.  fri         FALSE        stayed
##  4 df235631a4c281~        1696           1           106.  wed         FALSE        stayed
##  5 39804a2e3fb2e4~        2907           6           112.  sun         FALSE        stayed
##  6 4e9c7c21dfcf27~        1674           5           102.  sun         FALSE        stayed
##  7 8537874da3fa74~        4420           2           106.  sat         FALSE        stayed
##  8 0fcce2f5be8e34~        1951           3           110.  wed         FALSE        stayed
##  9 9864af3aba5bcb~        1981           3            96.9 sun         FALSE        stayed
## 10 ccd24f993579b4~        2307           3           115.  fri         FALSE        stayed
## # ... with 3,022 more rows, and 1 more variable: review_score <dbl>
```
…
1. _...using base `R` functions only._
2. _...using the `dplyr` functions `select()` and `filter()`._

03:00

---

## Sort rows with `arrange()`

```r
arrange(bookings, price_per_night) # default: sort in ascending order
```

```
## # A tibble: 10,000 x 8
##    booker_id       property_id room_nights price_per_night checkin_day for_business status
##    <chr>                 <dbl>       <dbl>           <dbl> <chr>       <lgl>        <chr> 
##  1 028c395e745c41~        3096           1            39.4 tue         FALSE        stayed
##  2 037bec01b4f11d~        3619           1            45.8 wed         TRUE         stayed
##  3 7341b69d8de545~        3983           1            47.7 thu         TRUE         stayed
##  4 cbedb290616cb7~        1172           2            53.2 thu         TRUE         stayed
##  5 dff926426fdf09~        4354           6            54.2 fri         FALSE        stayed
##  6 b28ca9bd608e46~        3118           2            54.8 sun         TRUE         stayed
##  7 e2aff0e6df1abe~        4116           5            55.7 tue         FALSE        stayed
##  8 28421366c10d89~        4391           4            56.6 fri         FALSE        stayed
##  9 a07a0a8a9d8924~        4150           2            57.7 sat         FALSE        cance~
## 10 97a4a1dcdce1ab~        1172           2            61.0 tue         TRUE         stayed
## # ... with 9,990 more rows, and 1 more variable: review_score <dbl>
```

```r
arrange(bookings, desc(price_per_night))
```

```
## # A tibble: 10,000 x 8
##    booker_id       property_id room_nights price_per_night checkin_day for_business status
##    <chr>                 <dbl>       <dbl>           <dbl> <chr>       <lgl>        <chr> 
##  1 3d62487f31468b~        4931           1            273. tue         TRUE         cance~
##  2 dc6add0d9538bf~        2305           1            272. fri         TRUE         stayed
##  3 c57c799c4fa86c~        5034           1            263. tue         TRUE         stayed
##  4 0dbc70d94f448b~        1819           1            259. fri         TRUE         cance~
##  5 1d0d33ccf02e4e~        2306           1            257. fri         FALSE        cance~
##  6 6b70130a6cd8bb~        3916           1            256. tue         TRUE         stayed
##  7 c478924be4be9c~        2464           1            255. sun         FALSE        stayed
##  8 52779fc42be8ef~        3832           1            255. tue         TRUE         stayed
##  9 23a1258e825c9f~        1971           1            254. tue         TRUE         stayed
## 10 58a1a0debacb2e~        2888           1            252. sun         FALSE        stayed
## # ... with 9,990 more rows, and 1 more variable: review_score <dbl>
```
…
Create a new column for the **total price** of a booking, which 
is the product of `price_per_night` and `room_nights`. 

.panelset[

.panel[.panel-name[`mutate()`]

```r
bookings %>%
  mutate(total_price = price_per_night * room_nights)
```

```
## # A tibble: 10,000 x 9
##    booker_id       property_id room_nights price_per_night checkin_day for_business status
##    <chr>                 <dbl>       <dbl>           <dbl> <chr>       <lgl>        <chr> 
##  1 215934017ba98c~        2668           4            91.5 mon         FALSE        cance~
##  2 7f590fd6d31824~        4656           5           107.  tue         FALSE        cance~
##  3 10f0f138e8bb10~        4563           6            87.0 wed         FALSE        stayed
##  4 7b55021a4160dd~        4088           7            92.4 fri         FALSE        stayed
##  5 6694a79d158c78~        2188           4           105.  tue         FALSE        stayed
##  6 d0358740d5f15e~        4171           2           110.  fri         FALSE        cance~
##  7 944e568a0b511b~        2907           4           116.  fri         FALSE        stayed
##  8 95476c2ef6bb9e~        5141           4           111.  wed         FALSE        cance~
##  9 df235631a4c281~        1696           1           106.  wed         FALSE        stayed
## 10 ff610140227d40~        1901           7            82.3 sat         FALSE        cance~
## # ... with 9,990 more rows, and 2 more variables: review_score <dbl>, total_price <dbl>
```
…
]

]
.panel[.panel-name[`mutate() + select()`]

(Only show `price_per_night`, `room_nights`, `total_price`)

```r
bookings %>%
  mutate(total_price = price_per_night * room_nights) %>%
  select(price_per_night, room_nights, total_price) 
```

```
## # A tibble: 10,000 x 3
##    price_per_night room_nights total_price
##              <dbl>       <dbl>       <dbl>
##  1            91.5           4        366.
##  2           107.            5        533.
##  3            87.0           6        522.
##  4            92.4           7        647.
##  5           105.            4        419.
##  6           110.            2        220.
##  7           116.            4        465.
##  8           111.            4        446.
##  9           106.            1        106.
## 10            82.3           7        576.
## # ... with 9,990 more rows
```

]

.panel[.panel-name[`mutate(..., .before = ...)`]

(Insert the new column before `booker_id`.)

```r
bookings %>%
  mutate(total_price = price_per_night * room_nights, .before = booker_id) 
```

```
## # A tibble: 10,000 x 9
##    total_price booker_id  property_id room_nights price_per_night checkin_day for_business
##          <dbl> <chr>            <dbl>       <dbl>           <dbl> <chr>       <lgl>       
##  1        366. 215934017~        2668           4            91.5 mon         FALSE       
##  2        533. 7f590fd6d~        4656           5           107.  tue         FALSE       
##  3        522. 10f0f138e~        4563           6            87.0 wed         FALSE       
##  4        647. 7b55021a4~        4088           7            92.4 fri         FALSE       
##  5        419. 6694a79d1~        2188           4           105.  tue         FALSE       
##  6        220. d0358740d~        4171           2           110.  fri         FALSE       
##  7        465. 944e568a0~        2907           4           116.  fri         FALSE       
##  8        446. 95476c2ef~        5141           4           111.  wed         FALSE       
##  9        106. df235631a~        1696           1           106.  wed         FALSE       
## 10        576. ff6101402~        1901           7            82.3 sat         FALSE       
## # ... with 9,990 more rows, and 2 more variables: status <chr>, review_score <dbl>
```

]

.panel[.panel-name[`mutate(..., .after = ...)`]

(Insert the new column after the second column (`property_id`).)

```r
bookings %>%
  mutate(total_price = price_per_night * room_nights, .after = 2) 
```

```
## # A tibble: 10,000 x 9
##    booker_id  property_id total_price room_nights price_per_night checkin_day for_business
##    <chr>            <dbl>       <dbl>       <dbl>           <dbl> <chr>       <lgl>       
##  1 215934017~        2668        366.           4            91.5 mon         FALSE       
##  2 7f590fd6d~        4656        533.           5           107.  tue         FALSE       
##  3 10f0f138e~        4563        522.           6            87.0 wed         FALSE       
##  4 7b55021a4~        4088        647.           7            92.4 fri         FALSE       
##  5 6694a79d1~        2188        419.           4           105.  tue         FALSE       
##  6 d0358740d~        4171        220.           2           110.  fri         FALSE       
##  7 944e568a0~        2907        465.           4           116.  fri         FALSE       
##  8 95476c2ef~        5141        446.           4           111.  wed         FALSE       
##  9 df235631a~        1696        106.           1           106.  wed         FALSE       
## 10 ff6101402~        1901        576.           7            82.3 sat         FALSE       
## # ... with 9,990 more rows, and 2 more variables: status <chr>, review_score <dbl>
```
…
- Syntax: mutate(name of new variable = equation)

---

## Replacing existing columns with `mutate()` &#x2795;

Convert the column `property_id` from `character` into `factor`. 

```r
bookings %>%
  mutate(property_id = as.factor(property_id))
```

```
## # A tibble: 10,000 x 8
##    booker_id       property_id room_nights price_per_night checkin_day for_business status
##    <chr>           <fct>             <dbl>           <dbl> <chr>       <lgl>        <chr> 
##  1 215934017ba98c~ 2668                  4            91.5 mon         FALSE        cance~
##  2 7f590fd6d31824~ 4656                  5           107.  tue         FALSE        cance~
##  3 10f0f138e8bb10~ 4563                  6            87.0 wed         FALSE        stayed
##  4 7b55021a4160dd~ 4088                  7            92.4 fri         FALSE        stayed
##  5 6694a79d158c78~ 2188                  4           105.  tue         FALSE        stayed
##  6 d0358740d5f15e~ 4171                  2           110.  fri         FALSE        cance~
##  7 944e568a0b511b~ 2907                  4           116.  fri         FALSE        stayed
##  8 95476c2ef6bb9e~ 5141                  4           111.  wed         FALSE        cance~
##  9 df235631a4c281~ 1696                  1           106.  wed         FALSE        stayed
## 10 ff610140227d40~ 1901                  7            82.3 sat         FALSE        cance~
## # ... with 9,990 more rows, and 1 more variable: review_score <dbl>
```
…
Apply a transformation to **multiple columns**.

.panelset[

.panel[.panel-name[Select columns by name]

> Transform columns whose names end with "id" to factor variables.

```r
bookings %>%
  mutate(across(ends_with("id"), as.factor))
```

```
## # A tibble: 10,000 x 8
##    booker_id       property_id room_nights price_per_night checkin_day for_business status
##    <fct>           <fct>             <dbl>           <dbl> <chr>       <lgl>        <chr> 
##  1 215934017ba98c~ 2668                  4            91.5 mon         FALSE        cance~
##  2 7f590fd6d31824~ 4656                  5           107.  tue         FALSE        cance~
##  3 10f0f138e8bb10~ 4563                  6            87.0 wed         FALSE        stayed
##  4 7b55021a4160dd~ 4088                  7            92.4 fri         FALSE        stayed
##  5 6694a79d158c78~ 2188                  4           105.  tue         FALSE        stayed
##  6 d0358740d5f15e~ 4171                  2           110.  fri         FALSE        cance~
##  7 944e568a0b511b~ 2907                  4           116.  fri         FALSE        stayed
##  8 95476c2ef6bb9e~ 5141                  4           111.  wed         FALSE        cance~
##  9 df235631a4c281~ 1696                  1           106.  wed         FALSE        stayed
## 10 ff610140227d40~ 1901                  7            82.3 sat         FALSE        cance~
## # ... with 9,990 more rows, and 1 more variable: review_score <dbl>
```

]

.panel[.panel-name[Select columns by logical condition]

> Transform all columns of type `character` to factor variables.

```r
bookings %>%
  mutate(across(where(is.character), as.factor))
```

```
## # A tibble: 10,000 x 8
##    booker_id       property_id room_nights price_per_night checkin_day for_business status
##    <fct>                 <dbl>       <dbl>           <dbl> <fct>       <lgl>        <fct> 
##  1 215934017ba98c~        2668           4            91.5 mon         FALSE        cance~
##  2 7f590fd6d31824~        4656           5           107.  tue         FALSE        cance~
##  3 10f0f138e8bb10~        4563           6            87.0 wed         FALSE        stayed
##  4 7b55021a4160dd~        4088           7            92.4 fri         FALSE        stayed
##  5 6694a79d158c78~        2188           4           105.  tue         FALSE        stayed
##  6 d0358740d5f15e~        4171           2           110.  fri         FALSE        cance~
##  7 944e568a0b511b~        2907           4           116.  fri         FALSE        stayed
##  8 95476c2ef6bb9e~        5141           4           111.  wed         FALSE        cance~
##  9 df235631a4c281~        1696           1           106.  wed         FALSE        stayed
## 10 ff610140227d40~        1901           7            82.3 sat         FALSE        cance~
## # ... with 9,990 more rows, and 1 more variable: review_score <dbl>
```
…
