Linear models
…
Example data: **father-son dataset** (1078 Measurements of the height of a father and his son.)

.pull-left70[

```r
library(tidyverse)
father_son <- UsingR::father.son %>%
  as_tibble() %>%
  mutate(across(everything(), ~ . * 2.54)) # convert from inch to cm
father_son
```

```
## # A tibble: 1,078 x 2
##    fheight sheight
##      <dbl>   <dbl>
##  1    165.    152.
##  2    161.    161.
##  3    165.    161.
##  4    167.    159.
##  5    155.    163.
##  6    160.    163.
##  7    166.    163.
##  8    164.    163.
##  9    168.    164.
## 10    170.    163.
## # ... with 1,068 more rows
```
…
RSS:

- 25% of the variability of the sons' heights are captured by this line
- square root of pearson correlation coefficient is R^2 
- sum((model$fit$fitted.values - mean(father_son$sheight))^2)/sum((father_son$sheight - mean(father_son$sheight))^2)
-F-ratio? S. 252

## `augment()`

```r
augment(model$fit)
```

```
## # A tibble: 1,078 x 8
##    sheight fheight .fitted .resid     .hat .sigma  .cooksd .std.resid
##      <dbl>   <dbl>   <dbl>  <dbl>    <dbl>  <dbl>    <dbl>      <dbl>
##  1    152.    165.    171. -19.2  0.00179    6.16 0.00860      -3.10 
##  2    161.    161.    169.  -8.10 0.00335    6.19 0.00289      -1.31 
##  3    161.    165.    171. -10.0  0.00185    6.18 0.00242      -1.62 
##  4    159.    167.    172. -12.4  0.00139    6.18 0.00281      -2.01 
##  5    163.    155.    166.  -2.63 0.00621    6.19 0.000568     -0.426
##  6    163.    160.    168.  -5.19 0.00361    6.19 0.00128      -0.840
##  7    163.    166.    171.  -8.66 0.00159    6.19 0.00156      -1.40 
##  8    163.    164.    171.  -8.04 0.00201    6.19 0.00170      -1.30 
##  9    164.    168.    172.  -8.22 0.00125    6.19 0.00111      -1.33 
## 10    163.    170.    174. -11.0  0.000991   6.18 0.00157      -1.78 
## # ... with 1,068 more rows
```
…
## Categorical predictor with two levels

.pull-left60[

```r
ames <- ames %>%
  mutate(has_fireplace = 
           as.factor(Fireplaces > 0))
ames %>% 
  select(Sale_Price, Fireplaces, has_fireplace) %>%
  print(n = 15)
```

```
## # A tibble: 2,930 x 3
##    Sale_Price Fireplaces has_fireplace
##         <int>      <int> <fct>        
##  1     215000          2 TRUE         
##  2     105000          0 FALSE        
##  3     172000          0 FALSE        
##  4     244000          2 TRUE         
##  5     189900          1 TRUE         
##  6     195500          1 TRUE         
##  7     213500          0 FALSE        
##  8     191500          0 FALSE        
##  9     236500          1 TRUE         
## 10     189000          1 TRUE         
## 11     175900          1 TRUE         
## 12     185000          0 FALSE        
## 13     180400          1 TRUE         
## 14     171500          1 TRUE         
## 15     212000          0 FALSE        
## # ... with 2,915 more rows
```
…
]

.pull-right20[

<img src="figures/_gen/06/outlier-illustration-1.png" width="283.464566929134" />

]

```r
(augmented_mod <- augment(model$fit))
```

```
## # A tibble: 1,078 x 8
##    sheight fheight .fitted .resid     .hat .sigma  .cooksd .std.resid
##      <dbl>   <dbl>   <dbl>  <dbl>    <dbl>  <dbl>    <dbl>      <dbl>
##  1    152.    165.    171. -19.2  0.00179    6.16 0.00860      -3.10 
##  2    161.    161.    169.  -8.10 0.00335    6.19 0.00289      -1.31 
##  3    161.    165.    171. -10.0  0.00185    6.18 0.00242      -1.62 
##  4    159.    167.    172. -12.4  0.00139    6.18 0.00281      -2.01 
##  5    163.    155.    166.  -2.63 0.00621    6.19 0.000568     -0.426
##  6    163.    160.    168.  -5.19 0.00361    6.19 0.00128      -0.840
##  7    163.    166.    171.  -8.66 0.00159    6.19 0.00156      -1.40 
##  8    163.    164.    171.  -8.04 0.00201    6.19 0.00170      -1.30 
##  9    164.    168.    172.  -8.22 0.00125    6.19 0.00111      -1.33 
## 10    163.    170.    174. -11.0  0.000991   6.18 0.00157      -1.78 
## # ... with 1,068 more rows
```
…
